Project 1
…
# shows the mean calories for cereals in each shelf
joined_data %>% group_by(shelf) %>% summarize(mean_cal = mean(calories))

## # A tibble: 4 x 2
##   shelf mean_cal
##   <int>    <dbl>
## 1     1     119.
## 2     2     130.
## 3     3     180.
## 4    NA      NA

# returns cereals in descending advertising spending for
# caloric values 300-400
joined_data %>% filter(between(calories, 300, 400)) %>% arrange(desc(spending))

##                brand mfr calories  protein      fat   sodium    fibre    carbo
## 1 Great Grains Pecan   P 363.6364 9.090909 9.090909 227.2727 9.090909 39.39394
##     sugars shelf potassium vitamins spending
## 1 12.12121     3  303.0303 enriched       NA

# converted sodium per portion from milligrams to grams and
# created a new variable
joined_data %>% mutate(sodium_g = (sodium * 1000))

##                                    brand  mfr  calories    protein       fat
## 1                              100% Bran    N 212.12121 12.1212121 3.0303030
## 2                               All-Bran    K 212.12121 12.1212121 3.0303030
## 3              All-Bran with Extra Fiber    K 100.00000  8.0000000 0.0000000
## 4                Apple Cinnamon Cheerios    G 146.66667  2.6666667 2.6666667
## 5                            Apple Jacks    K 110.00000  2.0000000 0.0000000
## 6                                Basic 4    G 173.33333  4.0000000 2.6666667
## 7                              Bran Chex    R 134.32836  2.9850746 1.4925373
##       sodium     fibre    carbo    sugars shelf potassium vitamins spending
## 1  393.93939 30.303030 15.15152 18.181818     3 848.48485 enriched       NA
## 2  787.87879 27.272727 21.21212 15.151515     3 969.69697 enriched       NA
## 3  280.00000 28.000000 16.00000  0.000000     3 660.00000 enriched       NA
## 4  240.00000  2.000000 14.00000 13.333333     1  93.33333 enriched     34.8
## 5  125.00000  1.000000 11.00000 14.000000     2  30.00000 enriched      4.9
## 6  280.00000  2.666667 24.00000 10.666667     3 133.33333 enriched       NA
## 7  298.50746  5.970149 22.38806  8.955224     1 186.56716 enriched       NA
##     sodium_g
## 1  393939.39
## 2  787878.79
## 3  280000.00
## 4  240000.00
## 5  125000.00
## 6  280000.00
## 7  298507.46
##  [ reached getOption("max.print") -- omitted 63 rows ]
…
